module brother-backend-api

go 1.13

require (
	github.com/astaxie/beego v1.12.0
	github.com/go-sql-driver/mysql v1.4.1
	github.com/shiena/ansicolor v0.0.0-20151119151921-a422bbe96644 // indirect
	google.golang.org/appengine v1.6.5 // indirect
)
